#START_GRAPH
//Props:
//skierowany; wazony; spojny; pelny; dwudzielny
#PROPERTIES 0;1;1;1;1
#VERTICES 8
#EDGES
0 1 5
0 2 2
0 3 7
0 4 8
0 5 6
0 6 5
0 7 8
1 2 4
1 3 6
1 4 4
1 5 8
1 6 4
1 7 5
2 3 1
2 4 6
2 5 8
2 6 7
2 7 6
3 4 7
3 5 8
3 6 9
3 7 5
4 5 1
4 6 4
4 7 8
5 6 8
5 7 6
6 7 1
#END_EDGES
#END_GRAPH