#START_GRAPH
#PROPERTIES 0;1;1;1;1
#VERTICES 6
#END_VERTICES
#EDGES
0 1 9
0 2 16
0 3 15
0 4 11
0 5 9
1 0 9
1 2 11
1 3 13
1 4 14
1 5 6
2 0 16
2 1 11
2 3 8
2 4 15
2 5 10
3 0 15
3 1 13
3 2 8
3 4 10
3 5 9
4 0 11
4 1 14
4 2 15
4 3 10
4 5 10
5 0 9
5 1 6
5 2 10
5 3 9
5 4 10
#END_EDGES
#END_GRAPH
