﻿//skierowany ważony spójny pełny dwudzielny
//#START_GRAPH
#PROPERTIES 0;0;1;0;1
#VERTICES 6
#END_VERTICES
#GROUPS
0 1 2
3 4 5
#END_GROUPS
#EDGES
0 3 1
0 4 6
1 4 8
1 5 6
2 3 4
2 5 1
#END_EDGES
#CONNECTIONS
#END_CONNECTIONS
#END_GRAPH

//#START_GRAPH
#PROPERTIES 0;0;1;0;1
#VERTICES 8
#END_VERTICES
#GROUPS
0 1 2 3
4 5 6 7
#END_GROUPS
#EDGES
0 4 -82
0 5 -83
0 6 -69
0 7 -92
1 4 -77
1 5 -37
1 6 -49
1 7 -92
2 4 -11
2 5 -69
2 6 -5
2 7 -86
3 4 -8
3 5 -9
3 6 -98
3 7 -23
#END_EDGES
#CONNECTIONS
#END_CONNECTIONS
#END_GRAPH

#START_GRAPH
#PROPERTIES 0;0;1;0;1
#VERTICES 8
0 D1
1 D2
2 D3
3 D4
4 A
5 B
6 C
7 D
#END_VERTICES
#GROUPS
0 1 2 3
4 5 6 7
#END_GROUPS
#EDGES
0 4 -1
0 5 -4
0 6 -5
0 7 -2
1 4 -2
1 5 -1
1 6 -3
1 7 -4
2 4 -1
2 5 -2
2 6 -4
2 7 -3
3 4 -2
3 5 -1
3 6 -1
3 7 -2
#END_EDGES
#CONNECTIONS
#END_CONNECTIONS
#END_GRAPH